examples/de1/client/test_MigLa.vcd
$date
	2012-09-17 17:00
$end
$version
	miscope VCD dump
$end
$comment

$end
$timescale 1ps $end
$scope 1ps $end
$var wire 16 ! trig_dat $end
$unscope  $end
$enddefinitions  $end
$dumpvars
bxxxxxxxxxxxxxxxx !
$end
#0
b0000000000000000 !
#1
b0000000000000001 !
#2
b0000000000000010 !
#3
b0000000000000011 !
#4
b0000000000000100 !
#5
b0000000000000101 !
#6
b0000000000000110 !
#7
b0000000000000111 !
#8
b0000000000001000 !
#9
b0000000000001001 !
#10
b0000000000001010 !
#11
b0000000000001011 !
#12
b0000000000001100 !
#13
b0000000000001101 !
#14
b0000000000001110 !
#15
b0000000000001111 !
#16
b0000000000010000 !
#17
b0000000000010001 !
#18
b0000000000010010 !
#19
b0000000000010011 !
#20
b0000000000010100 !
#21
b0000000000010101 !
#22
b0000000000010110 !
#23
b0000000000010111 !
#24
b0000000000011000 !
#25
b0000000000011001 !
#26
b0000000000011010 !
#27
b0000000000011011 !
#28
b0000000000011100 !
#29
b0000000000011101 !
#30
b0000000000011110 !
#31
b0000000000011111 !
#32
b0000000000100000 !
#33
b0000000000100001 !
#34
b0000000000100010 !
#35
b0000000000100011 !
#36
b0000000000100100 !
#37
b0000000000100101 !
#38
b0000000000100110 !
#39
b0000000000100111 !
#40
b0000000000101000 !
#41
b0000000000101001 !
#42
b0000000000101010 !
#43
b0000000000101011 !
#44
b0000000000101100 !
#45
b0000000000101101 !
#46
b0000000000101110 !
#47
b0000000000101111 !
#48
b0000000000110000 !
#49
b0000000000110001 !
#50
b0000000000110010 !
#51
b0000000000110011 !
#52
b0000000000110100 !
#53
b0000000000110101 !
#54
b0000000000110110 !
#55
b0000000000110111 !
#56
b0000000000111000 !
#57
b0000000000111001 !
#58
b0000000000111010 !
#59
b0000000000111011 !
#60
b0000000000111100 !
#61
b0000000000111101 !
#62
b0000000000111110 !
#63
b0000000000111111 !
#64
b0000000001000000 !
#65
b0000000001000001 !
#66
b0000000001000010 !
#67
b0000000001000011 !
#68
b0000000001000100 !
#69
b0000000001000101 !
#70
b0000000001000110 !
#71
b0000000001000111 !
#72
b0000000001001000 !
#73
b0000000001001001 !
#74
b0000000001001010 !
#75
b0000000001001011 !
#76
b0000000001001100 !
#77
b0000000001001101 !
#78
b0000000001001110 !
#79
b0000000001001111 !
#80
b0000000001010000 !
#81
b0000000001010001 !
#82
b0000000001010010 !
#83
b0000000001010011 !
#84
b0000000001010100 !
#85
b0000000001010101 !
#86
b0000000001010110 !
#87
b0000000001010111 !
#88
b0000000001011000 !
#89
b0000000001011001 !
#90
b0000000001011010 !
#91
b0000000001011011 !
#92
b0000000001011100 !
#93
b0000000001011101 !
#94
b0000000001011110 !
#95
b0000000001011111 !
#96
b0000000001100000 !
#97
b0000000001100001 !
#98
b0000000001100010 !
#99
b0000000001100011 !
#100
b0000000001100100 !
#101
b0000000001100101 !
#102
b0000000001100110 !
#103
b0000000001100111 !
#104
b0000000001101000 !
#105
b0000000001101001 !
#106
b0000000001101010 !
#107
b0000000001101011 !
#108
b0000000001101100 !
#109
b0000000001101101 !
#110
b0000000001101110 !
#111
b0000000001101111 !
#112
b0000000001110000 !
#113
b0000000001110001 !
#114
b0000000001110010 !
#115
b0000000001110011 !
#116
b0000000001110100 !
#117
b0000000001110101 !
#118
b0000000001110110 !
#119
b0000000001110111 !
#120
b0000000001111000 !
#121
b0000000001111001 !
#122
b0000000001111010 !
#123
b0000000001111011 !
#124
b0000000001111100 !
#125
b0000000001111101 !
#126
b0000000001111110 !
#127
b0000000001111111 !
#128
b0000000010000000 !
#129
b0000000010000001 !
#130
b0000000010000010 !
#131
b0000000010000011 !
#132
b0000000010000100 !
#133
b0000000010000101 !
#134
b0000000010000110 !
#135
b0000000010000111 !
#136
b0000000010001000 !
#137
b0000000010001001 !
#138
b0000000010001010 !
#139
b0000000010001011 !
#140
b0000000010001100 !
#141
b0000000010001101 !
#142
b0000000010001110 !
#143
b0000000010001111 !
#144
b0000000010010000 !
#145
b0000000010010001 !
#146
b0000000010010010 !
#147
b0000000010010011 !
#148
b0000000010010100 !
#149
b0000000010010101 !
#150
b0000000010010110 !
#151
b0000000010010111 !
#152
b0000000010011000 !
#153
b0000000010011001 !
#154
b0000000010011010 !
#155
b0000000010011011 !
#156
b0000000010011100 !
#157
b0000000010011101 !
#158
b0000000010011110 !
#159
b0000000010011111 !
#160
b0000000010100000 !
#161
b0000000010100001 !
#162
b0000000010100010 !
#163
b0000000010100011 !
#164
b0000000010100100 !
#165
b0000000010100101 !
#166
b0000000010100110 !
#167
b0000000010100111 !
#168
b0000000010101000 !
#169
b0000000010101001 !
#170
b0000000010101010 !
#171
b0000000010101011 !
#172
b0000000010101100 !
#173
b0000000010101101 !
#174
b0000000010101110 !
#175
b0000000010101111 !
#176
b0000000010110000 !
#177
b0000000010110001 !
#178
b0000000010110010 !
#179
b0000000010110011 !
#180
b0000000010110100 !
#181
b0000000010110101 !
#182
b0000000010110110 !
#183
b0000000010110111 !
#184
b0000000010111000 !
#185
b0000000010111001 !
#186
b0000000010111010 !
#187
b0000000010111011 !
#188
b0000000010111100 !
#189
b0000000010111101 !
#190
b0000000010111110 !
#191
b0000000010111111 !
#192
b0000000011000000 !
#193
b0000000011000001 !
#194
b0000000011000010 !
#195
b0000000011000011 !
#196
b0000000011000100 !
#197
b0000000011000101 !
#198
b0000000011000110 !
#199
b0000000011000111 !
#200
b0000000011001000 !
#201
b0000000011001001 !
#202
b0000000011001010 !
#203
b0000000011001011 !
#204
b0000000011001100 !
#205
b0000000011001101 !
#206
b0000000011001110 !
#207
b0000000011001111 !
#208
b0000000011010000 !
#209
b0000000011010001 !
#210
b0000000011010010 !
#211
b0000000011010011 !
#212
b0000000011010100 !
#213
b0000000011010101 !
#214
b0000000011010110 !
#215
b0000000011010111 !
#216
b0000000011011000 !
#217
b0000000011011001 !
#218
b0000000011011010 !
#219
b0000000011011011 !
#220
b0000000011011100 !
#221
b0000000011011101 !
#222
b0000000011011110 !
#223
b0000000011011111 !
#224
b0000000011100000 !
#225
b0000000011100001 !
#226
b0000000011100010 !
#227
b0000000011100011 !
#228
b0000000011100100 !
#229
b0000000011100101 !
#230
b0000000011100110 !
#231
b0000000011100111 !
#232
b0000000011101000 !
#233
b0000000011101001 !
#234
b0000000011101010 !
#235
b0000000011101011 !
#236
b0000000011101100 !
#237
b0000000011101101 !
#238
b0000000011101110 !
#239
b0000000011101111 !
#240
b0000000011110000 !
#241
b0000000011110001 !
#242
b0000000011110010 !
#243
b0000000011110011 !
#244
b0000000011110100 !
#245
b0000000011110101 !
#246
b0000000011110110 !
#247
b0000000011110111 !
#248
b0000000011111000 !
#249
b0000000011111001 !
#250
b0000000011111010 !
#251
b0000000011111011 !
#252
b0000000011111100 !
#253
b0000000011111101 !
#254
b0000000011111110 !
#255
b0000000011111111 !
#256
b0000000000000000 !
#257
b0000000000000001 !
#258
b0000000000000010 !
#259
b0000000000000011 !
#260
b0000000000000100 !
#261
b0000000000000101 !
#262
b0000000000000110 !
#263
b0000000000000111 !
#264
b0000000000001000 !
#265
b0000000000001001 !
#266
b0000000000001010 !
#267
b0000000000001011 !
#268
b0000000000001100 !
#269
b0000000000001101 !
#270
b0000000000001110 !
#271
b0000000000001111 !
#272
b0000000000010000 !
#273
b0000000000010001 !
#274
b0000000000010010 !
#275
b0000000000010011 !
#276
b0000000000010100 !
#277
b0000000000010101 !
#278
b0000000000010110 !
#279
b0000000000010111 !
#280
b0000000000011000 !
#281
b0000000000011001 !
#282
b0000000000011010 !
#283
b0000000000011011 !
#284
b0000000000011100 !
#285
b0000000000011101 !
#286
b0000000000011110 !
#287
b0000000000011111 !
#288
b0000000000100000 !
#289
b0000000000100001 !
#290
b0000000000100010 !
#291
b0000000000100011 !
#292
b0000000000100100 !
#293
b0000000000100101 !
#294
b0000000000100110 !
#295
b0000000000100111 !
#296
b0000000000101000 !
#297
b0000000000101001 !
#298
b0000000000101010 !
#299
b0000000000101011 !
#300
b0000000000101100 !
#301
b0000000000101101 !
#302
b0000000000101110 !
#303
b0000000000101111 !
#304
b0000000000110000 !
#305
b0000000000110001 !
#306
b0000000000110010 !
#307
b0000000000110011 !
#308
b0000000000110100 !
#309
b0000000000110101 !
#310
b0000000000110110 !
#311
b0000000000110111 !
#312
b0000000000111000 !
#313
b0000000000111001 !
#314
b0000000000111010 !
#315
b0000000000111011 !
#316
b0000000000111100 !
#317
b0000000000111101 !
#318
b0000000000111110 !
#319
b0000000000111111 !
#320
b0000000001000000 !
#321
b0000000001000001 !
#322
b0000000001000010 !
#323
b0000000001000011 !
#324
b0000000001000100 !
#325
b0000000001000101 !
#326
b0000000001000110 !
#327
b0000000001000111 !
#328
b0000000001001000 !
#329
b0000000001001001 !
#330
b0000000001001010 !
#331
b0000000001001011 !
#332
b0000000001001100 !
#333
b0000000001001101 !
#334
b0000000001001110 !
#335
b0000000001001111 !
#336
b0000000001010000 !
#337
b0000000001010001 !
#338
b0000000001010010 !
#339
b0000000001010011 !
#340
b0000000001010100 !
#341
b0000000001010101 !
#342
b0000000001010110 !
#343
b0000000001010111 !
#344
b0000000001011000 !
#345
b0000000001011001 !
#346
b0000000001011010 !
#347
b0000000001011011 !
#348
b0000000001011100 !
#349
b0000000001011101 !
#350
b0000000001011110 !
#351
b0000000001011111 !
#352
b0000000001100000 !
#353
b0000000001100001 !
#354
b0000000001100010 !
#355
b0000000001100011 !
#356
b0000000001100100 !
#357
b0000000001100101 !
#358
b0000000001100110 !
#359
b0000000001100111 !
#360
b0000000001101000 !
#361
b0000000001101001 !
#362
b0000000001101010 !
#363
b0000000001101011 !
#364
b0000000001101100 !
#365
b0000000001101101 !
#366
b0000000001101110 !
#367
b0000000001101111 !
#368
b0000000001110000 !
#369
b0000000001110001 !
#370
b0000000001110010 !
#371
b0000000001110011 !
#372
b0000000001110100 !
#373
b0000000001110101 !
#374
b0000000001110110 !
#375
b0000000001110111 !
#376
b0000000001111000 !
#377
b0000000001111001 !
#378
b0000000001111010 !
#379
b0000000001111011 !
#380
b0000000001111100 !
#381
b0000000001111101 !
#382
b0000000001111110 !
#383
b0000000001111111 !
#384
b0000000010000000 !
#385
b0000000010000001 !
#386
b0000000010000010 !
#387
b0000000010000011 !
#388
b0000000010000100 !
#389
b0000000010000101 !
#390
b0000000010000110 !
#391
b0000000010000111 !
#392
b0000000010001000 !
#393
b0000000010001001 !
#394
b0000000010001010 !
#395
b0000000010001011 !
#396
b0000000010001100 !
#397
b0000000010001101 !
#398
b0000000010001110 !
#399
b0000000010001111 !
#400
b0000000010010000 !
#401
b0000000010010001 !
#402
b0000000010010010 !
#403
b0000000010010011 !
#404
b0000000010010100 !
#405
b0000000010010101 !
#406
b0000000010010110 !
#407
b0000000010010111 !
#408
b0000000010011000 !
#409
b0000000010011001 !
#410
b0000000010011010 !
#411
b0000000010011011 !
#412
b0000000010011100 !
#413
b0000000010011101 !
#414
b0000000010011110 !
#415
b0000000010011111 !
#416
b0000000010100000 !
#417
b0000000010100001 !
#418
b0000000010100010 !
#419
b0000000010100011 !
#420
b0000000010100100 !
#421
b0000000010100101 !
#422
b0000000010100110 !
#423
b0000000010100111 !
#424
b0000000010101000 !
#425
b0000000010101001 !
#426
b0000000010101010 !
#427
b0000000010101011 !
#428
b0000000010101100 !
#429
b0000000010101101 !
#430
b0000000010101110 !
#431
b0000000010101111 !
#432
b0000000010110000 !
#433
b0000000010110001 !
#434
b0000000010110010 !
#435
b0000000010110011 !
#436
b0000000010110100 !
#437
b0000000010110101 !
#438
b0000000010110110 !
#439
b0000000010110111 !
#440
b0000000010111000 !
#441
b0000000010111001 !
#442
b0000000010111010 !
#443
b0000000010111011 !
#444
b0000000010111100 !
#445
b0000000010111101 !
#446
b0000000010111110 !
#447
b0000000010111111 !
#448
b0000000011000000 !
#449
b0000000011000001 !
#450
b0000000011000010 !
#451
b0000000011000011 !
#452
b0000000011000100 !
#453
b0000000011000101 !
#454
b0000000011000110 !
#455
b0000000011000111 !
#456
b0000000011001000 !
#457
b0000000011001001 !
#458
b0000000011001010 !
#459
b0000000011001011 !
#460
b0000000011001100 !
#461
b0000000011001101 !
#462
b0000000011001110 !
#463
b0000000011001111 !
#464
b0000000011010000 !
#465
b0000000011010001 !
#466
b0000000011010010 !
#467
b0000000011010011 !
#468
b0000000011010100 !
#469
b0000000011010101 !
#470
b0000000011010110 !
#471
b0000000011010111 !
#472
b0000000011011000 !
#473
b0000000011011001 !
#474
b0000000011011010 !
#475
b0000000011011011 !
#476
b0000000011011100 !
#477
b0000000011011101 !
#478
b0000000011011110 !
#479
b0000000011011111 !
#480
b0000000011100000 !
#481
b0000000011100001 !
#482
b0000000011100010 !
#483
b0000000011100011 !
#484
b0000000011100100 !
#485
b0000000011100101 !
#486
b0000000011100110 !
#487
b0000000011100111 !
#488
b0000000011101000 !
#489
b0000000011101001 !
#490
b0000000011101010 !
#491
b0000000011101011 !
#492
b0000000011101100 !
#493
b0000000011101101 !
#494
b0000000011101110 !
#495
b0000000011101111 !
#496
b0000000011110000 !
#497
b0000000011110001 !
#498
b0000000011110010 !
#499
b0000000011110011 !
#500
b0000000011110100 !
#501
b0000000011110101 !
#502
b0000000011110110 !
#503
b0000000011110111 !
#504
b0000000011111000 !
#505
b0000000011111001 !
#506
b0000000011111010 !
#507
b0000000011111011 !
#508
b0000000011111100 !
#509
b0000000011111101 !
#510
b0000000011111110 !
#511
b0000000011111111 !
#512
b0000000000000000 !
#513
b0000000000000001 !
#514
b0000000000000010 !
#515
b0000000000000011 !
#516
b0000000000000100 !
#517
b0000000000000101 !
#518
b0000000000000110 !
#519
b0000000000000111 !
#520
b0000000000001000 !
#521
b0000000000001001 !
#522
b0000000000001010 !
#523
b0000000000001011 !
#524
b0000000000001100 !
#525
b0000000000001101 !
#526
b0000000000001110 !
#527
b0000000000001111 !
#528
b0000000000010000 !
#529
b0000000000010001 !
#530
b0000000000010010 !
#531
b0000000000010011 !
#532
b0000000000010100 !
#533
b0000000000010101 !
#534
b0000000000010110 !
#535
b0000000000010111 !
#536
b0000000000011000 !
#537
b0000000000011001 !
#538
b0000000000011010 !
#539
b0000000000011011 !
#540
b0000000000011100 !
#541
b0000000000011101 !
#542
b0000000000011110 !
#543
b0000000000011111 !
#544
b0000000000100000 !
#545
b0000000000100001 !
#546
b0000000000100010 !
#547
b0000000000100011 !
#548
b0000000000100100 !
#549
b0000000000100101 !
#550
b0000000000100110 !
#551
b0000000000100111 !
#552
b0000000000101000 !
#553
b0000000000101001 !
#554
b0000000000101010 !
#555
b0000000000101011 !
#556
b0000000000101100 !
#557
b0000000000101101 !
#558
b0000000000101110 !
#559
b0000000000101111 !
#560
b0000000000110000 !
#561
b0000000000110001 !
#562
b0000000000110010 !
#563
b0000000000110011 !
#564
b0000000000110100 !
#565
b0000000000110101 !
#566
b0000000000110110 !
#567
b0000000000110111 !
#568
b0000000000111000 !
#569
b0000000000111001 !
#570
b0000000000111010 !
#571
b0000000000111011 !
#572
b0000000000111100 !
#573
b0000000000111101 !
#574
b0000000000111110 !
#575
b0000000000111111 !
#576
b0000000001000000 !
#577
b0000000001000001 !
#578
b0000000001000010 !
#579
b0000000001000011 !
#580
b0000000001000100 !
#581
b0000000001000101 !
#582
b0000000001000110 !
#583
b0000000001000111 !
#584
b0000000001001000 !
#585
b0000000001001001 !
#586
b0000000001001010 !
#587
b0000000001001011 !
#588
b0000000001001100 !
#589
b0000000001001101 !
#590
b0000000001001110 !
#591
b0000000001001111 !
#592
b0000000001010000 !
#593
b0000000001010001 !
#594
b0000000001010010 !
#595
b0000000001010011 !
#596
b0000000001010100 !
#597
b0000000001010101 !
#598
b0000000001010110 !
#599
b0000000001010111 !
#600
b0000000001011000 !
#601
b0000000001011001 !
#602
b0000000001011010 !
#603
b0000000001011011 !
#604
b0000000001011100 !
#605
b0000000001011101 !
#606
b0000000001011110 !
#607
b0000000001011111 !
#608
b0000000001100000 !
#609
b0000000001100001 !
#610
b0000000001100010 !
#611
b0000000001100011 !
#612
b0000000001100100 !
#613
b0000000001100101 !
#614
b0000000001100110 !
#615
b0000000001100111 !
#616
b0000000001101000 !
#617
b0000000001101001 !
#618
b0000000001101010 !
#619
b0000000001101011 !
#620
b0000000001101100 !
#621
b0000000001101101 !
#622
b0000000001101110 !
#623
b0000000001101111 !
#624
b0000000001110000 !
#625
b0000000001110001 !
#626
b0000000001110010 !
#627
b0000000001110011 !
#628
b0000000001110100 !
#629
b0000000001110101 !
#630
b0000000001110110 !
#631
b0000000001110111 !
#632
b0000000001111000 !
#633
b0000000001111001 !
#634
b0000000001111010 !
#635
b0000000001111011 !
#636
b0000000001111100 !
#637
b0000000001111101 !
#638
b0000000001111110 !
#639
b0000000001111111 !
#640
b0000000010000000 !
#641
b0000000010000001 !
#642
b0000000010000010 !
#643
b0000000010000011 !
#644
b0000000010000100 !
#645
b0000000010000101 !
#646
b0000000010000110 !
#647
b0000000010000111 !
#648
b0000000010001000 !
#649
b0000000010001001 !
#650
b0000000010001010 !
#651
b0000000010001011 !
#652
b0000000010001100 !
#653
b0000000010001101 !
#654
b0000000010001110 !
#655
b0000000010001111 !
#656
b0000000010010000 !
#657
b0000000010010001 !
#658
b0000000010010010 !
#659
b0000000010010011 !
#660
b0000000010010100 !
#661
b0000000010010101 !
#662
b0000000010010110 !
#663
b0000000010010111 !
#664
b0000000010011000 !
#665
b0000000010011001 !
#666
b0000000010011010 !
#667
b0000000010011011 !
#668
b0000000010011100 !
#669
b0000000010011101 !
#670
b0000000010011110 !
#671
b0000000010011111 !
#672
b0000000010100000 !
#673
b0000000010100001 !
#674
b0000000010100010 !
#675
b0000000010100011 !
#676
b0000000010100100 !
#677
b0000000010100101 !
#678
b0000000010100110 !
#679
b0000000010100111 !
#680
b0000000010101000 !
#681
b0000000010101001 !
#682
b0000000010101010 !
#683
b0000000010101011 !
#684
b0000000010101100 !
#685
b0000000010101101 !
#686
b0000000010101110 !
#687
b0000000010101111 !
#688
b0000000010110000 !
#689
b0000000010110001 !
#690
b0000000010110010 !
#691
b0000000010110011 !
#692
b0000000010110100 !
#693
b0000000010110101 !
#694
b0000000010110110 !
#695
b0000000010110111 !
#696
b0000000010111000 !
#697
b0000000010111001 !
#698
b0000000010111010 !
#699
b0000000010111011 !
#700
b0000000010111100 !
#701
b0000000010111101 !
#702
b0000000010111110 !
#703
b0000000010111111 !
#704
b0000000011000000 !
#705
b0000000011000001 !
#706
b0000000011000010 !
#707
b0000000011000011 !
#708
b0000000011000100 !
#709
b0000000011000101 !
#710
b0000000011000110 !
#711
b0000000011000111 !
#712
b0000000011001000 !
#713
b0000000011001001 !
#714
b0000000011001010 !
#715
b0000000011001011 !
#716
b0000000011001100 !
#717
b0000000011001101 !
#718
b0000000011001110 !
#719
b0000000011001111 !
#720
b0000000011010000 !
#721
b0000000011010001 !
#722
b0000000011010010 !
#723
b0000000011010011 !
#724
b0000000011010100 !
#725
b0000000011010101 !
#726
b0000000011010110 !
#727
b0000000011010111 !
#728
b0000000011011000 !
#729
b0000000011011001 !
#730
b0000000011011010 !
#731
b0000000011011011 !
#732
b0000000011011100 !
#733
b0000000011011101 !
#734
b0000000011011110 !
#735
b0000000011011111 !
#736
b0000000011100000 !
#737
b0000000011100001 !
#738
b0000000011100010 !
#739
b0000000011100011 !
#740
b0000000011100100 !
#741
b0000000011100101 !
#742
b0000000011100110 !
#743
b0000000011100111 !
#744
b0000000011101000 !
#745
b0000000011101001 !
#746
b0000000011101010 !
#747
b0000000011101011 !
#748
b0000000011101100 !
#749
b0000000011101101 !
#750
b0000000011101110 !
#751
b0000000011101111 !
#752
b0000000011110000 !
#753
b0000000011110001 !
#754
b0000000011110010 !
#755
b0000000011110011 !
#756
b0000000011110100 !
#757
b0000000011110101 !
#758
b0000000011110110 !
#759
b0000000011110111 !
#760
b0000000011111000 !
#761
b0000000011111001 !
#762
b0000000011111010 !
#763
b0000000011111011 !
#764
b0000000011111100 !
#765
b0000000011111101 !
#766
b0000000011111110 !
#767
b0000000011111111 !
#768
b0000000000000000 !
#769
b0000000000000001 !
#770
b0000000000000010 !
#771
b0000000000000011 !
#772
b0000000000000100 !
#773
b0000000000000101 !
#774
b0000000000000110 !
#775
b0000000000000111 !
#776
b0000000000001000 !
#777
b0000000000001001 !
#778
b0000000000001010 !
#779
b0000000000001011 !
#780
b0000000000001100 !
#781
b0000000000001101 !
#782
b0000000000001110 !
#783
b0000000000001111 !
#784
b0000000000010000 !
#785
b0000000000010001 !
#786
b0000000000010010 !
#787
b0000000000010011 !
#788
b0000000000010100 !
#789
b0000000000010101 !
#790
b0000000000010110 !
#791
b0000000000010111 !
#792
b0000000000011000 !
#793
b0000000000011001 !
#794
b0000000000011010 !
#795
b0000000000011011 !
#796
b0000000000011100 !
#797
b0000000000011101 !
#798
b0000000000011110 !
#799
b0000000000011111 !
#800
b0000000000100000 !
#801
b0000000000100001 !
#802
b0000000000100010 !
#803
b0000000000100011 !
#804
b0000000000100100 !
#805
b0000000000100101 !
#806
b0000000000100110 !
#807
b0000000000100111 !
#808
b0000000000101000 !
#809
b0000000000101001 !
#810
b0000000000101010 !
#811
b0000000000101011 !
#812
b0000000000101100 !
#813
b0000000000101101 !
#814
b0000000000101110 !
#815
b0000000000101111 !
#816
b0000000000110000 !
#817
b0000000000110001 !
#818
b0000000000110010 !
#819
b0000000000110011 !
#820
b0000000000110100 !
#821
b0000000000110101 !
#822
b0000000000110110 !
#823
b0000000000110111 !
#824
b0000000000111000 !
#825
b0000000000111001 !
#826
b0000000000111010 !
#827
b0000000000111011 !
#828
b0000000000111100 !
#829
b0000000000111101 !
#830
b0000000000111110 !
#831
b0000000000111111 !
#832
b0000000001000000 !
#833
b0000000001000001 !
#834
b0000000001000010 !
#835
b0000000001000011 !
#836
b0000000001000100 !
#837
b0000000001000101 !
#838
b0000000001000110 !
#839
b0000000001000111 !
#840
b0000000001001000 !
#841
b0000000001001001 !
#842
b0000000001001010 !
#843
b0000000001001011 !
#844
b0000000001001100 !
#845
b0000000001001101 !
#846
b0000000001001110 !
#847
b0000000001001111 !
#848
b0000000001010000 !
#849
b0000000001010001 !
#850
b0000000001010010 !
#851
b0000000001010011 !
#852
b0000000001010100 !
#853
b0000000001010101 !
#854
b0000000001010110 !
#855
b0000000001010111 !
#856
b0000000001011000 !
#857
b0000000001011001 !
#858
b0000000001011010 !
#859
b0000000001011011 !
#860
b0000000001011100 !
#861
b0000000001011101 !
#862
b0000000001011110 !
#863
b0000000001011111 !
#864
b0000000001100000 !
#865
b0000000001100001 !
#866
b0000000001100010 !
#867
b0000000001100011 !
#868
b0000000001100100 !
#869
b0000000001100101 !
#870
b0000000001100110 !
#871
b0000000001100111 !
#872
b0000000001101000 !
#873
b0000000001101001 !
#874
b0000000001101010 !
#875
b0000000001101011 !
#876
b0000000001101100 !
#877
b0000000001101101 !
#878
b0000000001101110 !
#879
b0000000001101111 !
#880
b0000000001110000 !
#881
b0000000001110001 !
#882
b0000000001110010 !
#883
b0000000001110011 !
#884
b0000000001110100 !
#885
b0000000001110101 !
#886
b0000000001110110 !
#887
b0000000001110111 !
#888
b0000000001111000 !
#889
b0000000001111001 !
#890
b0000000001111010 !
#891
b0000000001111011 !
#892
b0000000001111100 !
#893
b0000000001111101 !
#894
b0000000001111110 !
#895
b0000000001111111 !
#896
b0000000010000000 !
#897
b0000000010000001 !
#898
b0000000010000010 !
#899
b0000000010000011 !
#900
b0000000010000100 !
#901
b0000000010000101 !
#902
b0000000010000110 !
#903
b0000000010000111 !
#904
b0000000010001000 !
#905
b0000000010001001 !
#906
b0000000010001010 !
#907
b0000000010001011 !
#908
b0000000010001100 !
#909
b0000000010001101 !
#910
b0000000010001110 !
#911
b0000000010001111 !
#912
b0000000010010000 !
#913
b0000000010010001 !
#914
b0000000010010010 !
#915
b0000000010010011 !
#916
b0000000010010100 !
#917
b0000000010010101 !
#918
b0000000010010110 !
#919
b0000000010010111 !
#920
b0000000010011000 !
#921
b0000000010011001 !
#922
b0000000010011010 !
#923
b0000000010011011 !
#924
b0000000010011100 !
#925
b0000000010011101 !
#926
b0000000010011110 !
#927
b0000000010011111 !
#928
b0000000010100000 !
#929
b0000000010100001 !
#930
b0000000010100010 !
#931
b0000000010100011 !
#932
b0000000010100100 !
#933
b0000000010100101 !
#934
b0000000010100110 !
#935
b0000000010100111 !
#936
b0000000010101000 !
#937
b0000000010101001 !
#938
b0000000010101010 !
#939
b0000000010101011 !
#940
b0000000010101100 !
#941
b0000000010101101 !
#942
b0000000010101110 !
#943
b0000000010101111 !
#944
b0000000010110000 !
#945
b0000000010110001 !
#946
b0000000010110010 !
#947
b0000000010110011 !
#948
b0000000010110100 !
#949
b0000000010110101 !
#950
b0000000010110110 !
#951
b0000000010110111 !
#952
b0000000010111000 !
#953
b0000000010111001 !
#954
b0000000010111010 !
#955
b0000000010111011 !
#956
b0000000010111100 !
#957
b0000000010111101 !
#958
b0000000010111110 !
#959
b0000000010111111 !
#960
b0000000011000000 !
#961
b0000000011000001 !
#962
b0000000011000010 !
#963
b0000000011000011 !
#964
b0000000011000100 !
#965
b0000000011000101 !
#966
b0000000011000110 !
#967
b0000000011000111 !
#968
b0000000011001000 !
#969
b0000000011001001 !
#970
b0000000011001010 !
#971
b0000000011001011 !
#972
b0000000011001100 !
#973
b0000000011001101 !
#974
b0000000011001110 !
#975
b0000000011001111 !
#976
b0000000011010000 !
#977
b0000000011010001 !
#978
b0000000011010010 !
#979
b0000000011010011 !
#980
b0000000011010100 !
#981
b0000000011010101 !
#982
b0000000011010110 !
#983
b0000000011010111 !
#984
b0000000011011000 !
#985
b0000000011011001 !
#986
b0000000011011010 !
#987
b0000000011011011 !
#988
b0000000011011100 !
#989
b0000000011011101 !
#990
b0000000011011110 !
#991
b0000000011011111 !
#992
b0000000011100000 !
#993
b0000000011100001 !
#994
b0000000011100010 !
#995
b0000000011100011 !
#996
b0000000011100100 !
#997
b0000000011100101 !
#998
b0000000011100110 !
#999
b0000000011100111 !
#1000
b0000000011101000 !
#1001
b0000000011101001 !
#1002
b0000000011101010 !
#1003
b0000000011101011 !
#1004
b0000000011101100 !
#1005
b0000000011101101 !
#1006
b0000000011101110 !
#1007
b0000000011101111 !
#1008
b0000000011110000 !
#1009
b0000000011110001 !
#1010
b0000000011110010 !
#1011
b0000000011110011 !
#1012
b0000000011110100 !
#1013
b0000000011110101 !
#1014
b0000000011110110 !
#1015
b0000000011110111 !
#1016
b0000000011111000 !
#1017
b0000000011111001 !
#1018
b0000000011111010 !
#1019
b0000000011111011 !
#1020
b0000000011111100 !
#1021
b0000000011111101 !
#1022
b0000000011111110 !
#1023
b0000000011111111 !
#1024
b0000000000000000 !
#1025
b0000000000000000 !
#1026
b0000000000000000 !
#1027
b0000000000000000 !
#1028
b0000000000000000 !
#1029
b0000000000000000 !
#1030
b0000000000000000 !
#1031
b0000000000000000 !
#1032
b0000000000000000 !
#1033
b0000000000000000 !
#1034
b0000000000000000 !
#1035
b0000000000000000 !
#1036
b0000000000000000 !
#1037
b0000000000000000 !
#1038
b0000000000000000 !
#1039
b0000000000000000 !
#1040
b0000000000000000 !
#1041
b0000000000000000 !
#1042
b0000000000000000 !
#1043
b0000000000000000 !
#1044
b0000000000000000 !
#1045
b0000000000000000 !
#1046
b0000000000000000 !
#1047
b0000000000000000 !
#1048
b0000000000000000 !
#1049
b0000000000000000 !
#1050
b0000000000000000 !
#1051
b0000000000000000 !
#1052
b0000000000000000 !
#1053
b0000000000000000 !
#1054
b0000000000000000 !
#1055
b0000000000000000 !
#1056
b0000000000000000 !
#1057
b0000000000000000 !
#1058
b0000000000000000 !
#1059
b0000000000000000 !
#1060
b0000000000000000 !
#1061
b0000000000000000 !
#1062
b0000000000000000 !
#1063
b0000000000000000 !
#1064
b0000000000000000 !
#1065
b0000000000000000 !
#1066
b0000000000000000 !
#1067
b0000000000000000 !
#1068
b0000000000000000 !
#1069
b0000000000000000 !
#1070
b0000000000000000 !
#1071
b0000000000000000 !
#1072
b0000000000000000 !
#1073
b0000000000000000 !
#1074
b0000000000000000 !
#1075
b0000000000000000 !
#1076
b0000000000000000 !
#1077
b0000000000000000 !
#1078
b0000000000000000 !
#1079
b0000000000000000 !
#1080
b0000000000000000 !
#1081
b0000000000000000 !
#1082
b0000000000000000 !
#1083
b0000000000000000 !
#1084
b0000000000000000 !
#1085
b0000000000000000 !
#1086
b0000000000000000 !
#1087
b0000000000000000 !
#1088
b0000000000000000 !
#1089
b0000000000000000 !
#1090
b0000000000000000 !
#1091
b0000000000000000 !
#1092
b0000000000000000 !
#1093
b0000000000000000 !
#1094
b0000000000000000 !
#1095
b0000000000000000 !
#1096
b0000000000000000 !
#1097
b0000000000000000 !
#1098
b0000000000000000 !
#1099
b0000000000000000 !
#1100
b0000000000000000 !
#1101
b0000000000000000 !
#1102
b0000000000000000 !
#1103
b0000000000000000 !
#1104
b0000000000000000 !
#1105
b0000000000000000 !
#1106
b0000000000000000 !
#1107
b0000000000000000 !
#1108
b0000000000000000 !
#1109
b0000000000000000 !
#1110
b0000000000000000 !
#1111
b0000000000000000 !
#1112
b0000000000000000 !
#1113
b0000000000000000 !
#1114
b0000000000000000 !
#1115
b0000000000000000 !
#1116
b0000000000000000 !
#1117
b0000000000000000 !
#1118
b0000000000000000 !
#1119
b0000000000000000 !
#1120
b0000000000000000 !
#1121
b0000000000000000 !
#1122
b0000000000000000 !
#1123
b0000000000000000 !
#1124
b0000000000000000 !
#1125
b0000000000000000 !
#1126
b0000000000000000 !
#1127
b0000000000000000 !
#1128
b0000000000000000 !
#1129
b0000000000000000 !
#1130
b0000000000000000 !
#1131
b0000000000000000 !
